<svg id="Group_690" data-name="Group 690" xmlns="http://www.w3.org/2000/svg" width="19.361" height="19.361" viewBox="0 0 19.361 19.361">
  <g id="fax">
    <path id="Path_4450" data-name="Path 4450" d="M235.457,61.979h2.657a.567.567,0,0,0,0-1.134h-2.657a.567.567,0,1,0,0,1.134Z" transform="translate(-226.008 -58.544)" fill="#fff"/>
    <path id="Path_4451" data-name="Path 4451" d="M235.457,122.121h5.264a.567.567,0,1,0,0-1.134h-5.264a.567.567,0,1,0,0,1.134Z" transform="translate(-226.008 -116.412)" fill="#fff"/>
    <path id="Path_4452" data-name="Path 4452" d="M17.7,7.491V1.048A1.049,1.049,0,0,0,16.649,0H7.514A1.049,1.049,0,0,0,6.466,1.048V7.491a2.079,2.079,0,0,0-1.1.613,2.074,2.074,0,0,0-1.513-.655H2.08A2.082,2.082,0,0,0,0,9.529v7.752a2.082,2.082,0,0,0,2.08,2.08H3.857a2.074,2.074,0,0,0,1.513-.655,2.074,2.074,0,0,0,1.513.655h10.4a2.082,2.082,0,0,0,2.08-2.08V9.529A2.083,2.083,0,0,0,17.7,7.491ZM16.563,1.134V7.449H7.6V1.134ZM4.8,17.281a.946.946,0,0,1-.945.945H2.08a.946.946,0,0,1-.945-.945V9.529a.946.946,0,0,1,.945-.945H3.857a.946.946,0,0,1,.945.945Zm13.424,0a.946.946,0,0,1-.945.945H6.882a.946.946,0,0,1-.945-.945V9.529a.946.946,0,0,1,.945-.945h10.4a.946.946,0,0,1,.945.945Z" transform="translate(0 0)" fill="#fff"/>
    <path id="Path_4453" data-name="Path 4453" d="M215.823,279.5h-.756a.567.567,0,1,0,0,1.134h.756a.567.567,0,1,0,0-1.134Z" transform="translate(-206.389 -268.931)" fill="#fff"/>
    <path id="Path_4454" data-name="Path 4454" d="M295.823,279.5h-.756a.567.567,0,0,0,0,1.134h.756a.567.567,0,0,0,0-1.134Z" transform="translate(-283.364 -268.931)" fill="#fff"/>
    <path id="Path_4455" data-name="Path 4455" d="M375.823,279.5h-.756a.567.567,0,0,0,0,1.134h.756a.567.567,0,0,0,0-1.134Z" transform="translate(-360.339 -268.931)" fill="#fff"/>
    <path id="Path_4456" data-name="Path 4456" d="M215.823,339.5h-.756a.567.567,0,1,0,0,1.134h.756a.567.567,0,1,0,0-1.134Z" transform="translate(-206.389 -326.662)" fill="#fff"/>
    <path id="Path_4457" data-name="Path 4457" d="M295.823,339.5h-.756a.567.567,0,0,0,0,1.134h.756a.567.567,0,0,0,0-1.134Z" transform="translate(-283.364 -326.662)" fill="#fff"/>
    <path id="Path_4458" data-name="Path 4458" d="M375.823,339.5h-.756a.567.567,0,0,0,0,1.134h.756a.567.567,0,0,0,0-1.134Z" transform="translate(-360.339 -326.662)" fill="#fff"/>
    <path id="Path_4459" data-name="Path 4459" d="M215.823,399.5h-.756a.567.567,0,1,0,0,1.134h.756a.567.567,0,1,0,0-1.134Z" transform="translate(-206.389 -384.393)" fill="#fff"/>
    <path id="Path_4460" data-name="Path 4460" d="M295.823,399.5h-.756a.567.567,0,0,0,0,1.134h.756a.567.567,0,0,0,0-1.134Z" transform="translate(-283.364 -384.393)" fill="#fff"/>
    <path id="Path_4461" data-name="Path 4461" d="M375.823,399.5h-.756a.567.567,0,0,0,0,1.134h.756a.567.567,0,0,0,0-1.134Z" transform="translate(-360.339 -384.393)" fill="#fff"/>
  </g>
</svg>
