<svg xmlns="http://www.w3.org/2000/svg" width="60" height="60" viewBox="0 0 60 60">
  <g id="Group_756" data-name="Group 756" transform="translate(-1633 -776)">
    <!-- <g id="Ellipse_1" data-name="Ellipse 1" transform="translate(1633 776)" fill="none" stroke="#fff" stroke-width="2">
      <circle cx="30" cy="30" r="30" stroke="none"/>
      <circle cx="30" cy="30" r="29" fill="none"/>
    </g> -->
    <path id="Path_1971" data-name="Path 1971" d="M11.67,3.87,9.9,2.1,0,12l9.9,9.9,1.77-1.77L3.54,12Z" transform="translate(1657 793.9)" fill="#fff"/>
  </g>
</svg>
