<svg xmlns="http://www.w3.org/2000/svg" width="16.5" height="15.452" viewBox="0 0 16.5 15.452" fill="#fff">
  <path id="Path_2752" data-name="Path 2752" d="M4.087,3.012a2.327,2.327,0,0,0-1.477.471A1.6,1.6,0,0,0,2,4.729,1.884,1.884,0,0,0,3.989,6.466a.351.351,0,0,0,.1.016,2.278,2.278,0,0,0,1.5-.5A1.649,1.649,0,0,0,6.17,4.729c0-.006,0-.013,0-.019A1.923,1.923,0,0,0,4.087,3.012Zm0,.687c.908,0,1.355.446,1.393,1.038a.93.93,0,0,1-.339.727,1.6,1.6,0,0,1-1.054.33c-.905,0-1.4-.491-1.4-1.066a.878.878,0,0,1,.351-.711A1.651,1.651,0,0,1,4.087,3.7ZM2.348,7.182A.348.348,0,0,0,2,7.53V17.617a.348.348,0,0,0,.348.348H5.826a.348.348,0,0,0,.348-.348V7.53a.348.348,0,0,0-.348-.348Zm5.217,0a.348.348,0,0,0-.348.348V17.617a.348.348,0,0,0,.348.348h3.478a.348.348,0,0,0,.348-.348V11.877a1.217,1.217,0,1,1,2.435,0v5.739a.348.348,0,0,0,.348.348h3.478A.348.348,0,0,0,18,17.617V11.7a4.839,4.839,0,0,0-1.133-3.348A3.694,3.694,0,0,0,14.1,7.182a4.184,4.184,0,0,0-2.709.905V7.53a.348.348,0,0,0-.348-.348Zm-4.87.7H5.478v9.391H2.7Zm5.217,0H10.7V8.8a.348.348,0,0,0,.607.232,3.97,3.97,0,0,1,2.8-1.15,2.97,2.97,0,0,1,2.255.949A4.135,4.135,0,0,1,17.3,11.7v5.565H14.522V11.877a.347.347,0,0,0-.029-.143,1.9,1.9,0,0,0-3.8.143v5.391H7.913Z" transform="translate(-1.75 -2.762)" fill="#fff" stroke="#fff" stroke-width="0.5"/>
</svg>
